{"items":[{"id":313129,"id_show":43888,"episode":4,"season":1,"title":"Episode #1.4","description":"","still_path":null,"shard":"storage4","air_date":"2025-04-20","flag_quality":0,"created_at":"2025-04-20 07:43:00","updated_at":"2025-04-20 07:43:28","imdb_rating":"7.4","poster":"https://cloudcdn.monster/images/p/w500/02498fb7a8340c983ab9b1a5fac3a08c.webp","show_title":"The Last Anniversary"},{"id":313142,"id_show":43908,"episode":3,"season":1,"title":"Fresh Transparent Fashions for Spring / Witch&#x27;s Delivery Service / Lost Dogs and the Patter of Rain","description":"","still_path":null,"shard":"storage4","air_date":"2025-04-20","flag_quality":0,"created_at":"2025-04-20 09:19:10","updated_at":"2025-04-20 09:19:38","imdb_rating":"6.7","poster":"https://cloudcdn.monster/images/p/w500/46ac56edea12383387a5a0895e998e11.webp","show_title":"Witch Watch"},{"id":313105,"id_show":36304,"episode":7,"season":3,"title":"T&#x27;谩谩 脕lts&#x27;铆铆s铆go (Just a Small Piece)","description":"","still_path":null,"shard":"storage5","air_date":"2025-04-20","flag_quality":0,"created_at":"2025-04-20 05:24:12","updated_at":"2025-04-20 05:24:47","imdb_rating":"7.7","poster":"https://cloudcdn.monster/images/p/w500/7bf2834b9d8a09f73223679584448a29.webp","show_title":"Dark Winds"},{"id":313115,"id_show":8271,"episode":2,"season":4,"title":"Country Boy","description":"","still_path":null,"shard":"storage1","air_date":"2025-04-20","flag_quality":0,"created_at":"2025-04-20 05:55:30","updated_at":"2025-04-20 05:56:05","imdb_rating":"8.1","poster":"https://cloudcdn.monster/images/p/w500/80cafc5d128832ecc33a6888d9493cc6.webp","show_title":"Godfather of Harlem"},{"id":313141,"id_show":43907,"episode":5,"season":1,"title":"The People of the Deep","description":"","still_path":null,"shard":"storage5","air_date":"2025-04-19","flag_quality":0,"created_at":"2025-04-20 09:11:08","updated_at":"2025-04-20 09:11:44","imdb_rating":"7.9","poster":"https://cloudcdn.monster/images/p/w500/6aabd11f5a2cd4c7359e40fc3a35be52.webp","show_title":"Iyanu"},{"id":313116,"id_show":43841,"episode":5,"season":1,"title":"Episode #1.5","description":"","still_path":null,"shard":"storage3","air_date":"2025-04-19","flag_quality":0,"created_at":"2025-04-20 06:02:09","updated_at":"2025-04-20 06:02:27","imdb_rating":"5.4","poster":"https://cloudcdn.monster/images/p/w500/0f19b3ba5db52338dd476612d27b4b25.webp","show_title":"99 to Beat UK"},{"id":313109,"id_show":42417,"episode":10,"season":2,"title":"Alyssa Farah Griffin & George Wallace","description":"","still_path":null,"shard":"storage3","air_date":"2025-04-19","flag_quality":0,"created_at":"2025-04-20 05:42:17","updated_at":"2025-04-20 05:42:50","imdb_rating":"7.5","poster":"https://cloudcdn.monster/images/p/w500/c4b5f8ad9d5387cf2c816e7fb8d487ea.webp","show_title":"Have I Got News for You"},{"id":313119,"id_show":9094,"episode":8,"season":18,"title":"Auditions 8","description":"","still_path":null,"shard":"storage4","air_date":"2025-04-19","flag_quality":0,"created_at":"2025-04-20 06:08:17","updated_at":"2025-04-20 06:09:14","imdb_rating":"5.8","poster":"https://cloudcdn.monster/images/p/w500/11ff13f16b4a2ddf5407d2521d6dd08a.webp","show_title":"Britain's Got Talent"},{"id":313114,"id_show":6302,"episode":8,"season":22,"title":"Freddie Flintoff/Rebel Wilson/Jason Isaacs/David Oyelowo/Sophie Willan/Wet Leg","description":"","still_path":null,"shard":"storage4","air_date":"2025-04-19","flag_quality":0,"created_at":"2025-04-20 05:50:56","updated_at":"2025-04-20 05:52:02","imdb_rating":"6.1","poster":"https://cloudcdn.monster/images/p/w500/ceb05ad1af38b34841387921802e52dd.webp","show_title":"The Jonathan Ross Show"},{"id":313067,"id_show":43711,"episode":7,"season":1,"title":"Viernes Santo I","description":"","still_path":null,"shard":"storage5","air_date":"2025-04-18","flag_quality":0,"created_at":"2025-04-20 04:14:23","updated_at":"2025-04-20 04:14:51","imdb_rating":"5.9","poster":"https://cloudcdn.monster/images/p/w500/d84511815005fd794a331b641a618fa0.webp","show_title":"When No One Sees Us"},{"id":313151,"id_show":42940,"episode":7,"season":1,"title":"Mary Magdalene","description":"","still_path":null,"shard":"storage4","air_date":"2025-04-18","flag_quality":0,"created_at":"2025-04-20 10:18:47","updated_at":"2025-04-20 10:19:20","imdb_rating":"6.8","poster":"https://cloudcdn.monster/images/p/w500/dc41018c0142e00a40dac0473257bee2.webp","show_title":"Martin Scorsese Presents: The Saints"},{"id":313108,"id_show":36582,"episode":1,"season":2,"title":"Are We Ready for This?","description":"","still_path":null,"shard":"storage6","air_date":"2025-04-18","flag_quality":0,"created_at":"2025-04-20 05:42:14","updated_at":"2025-04-20 05:42:45","imdb_rating":"8.7","poster":"https://cloudcdn.monster/images/p/w500/873610aa08718b7400b906b121dca47c.webp","show_title":"Light & Magic"},{"id":313158,"id_show":37808,"episode":4,"season":3,"title":"Episode #3.4","description":"","still_path":null,"shard":"storage1","air_date":"2025-04-18","flag_quality":0,"created_at":"2025-04-20 10:52:28","updated_at":"2025-04-20 10:53:07","imdb_rating":"7.4","poster":"https://cloudcdn.monster/images/p/w500/115683d70d620ac9a92d3d1aecf6413c.webp","show_title":"Beyond Paradise"},{"id":313084,"id_show":43778,"episode":7,"season":1,"title":"Mussolini","description":"","still_path":null,"shard":"storage6","air_date":"2025-04-18","flag_quality":0,"created_at":"2025-04-20 04:43:07","updated_at":"2025-04-20 04:43:39","imdb_rating":"7.3","poster":"https://cloudcdn.monster/images/p/w500/5fc5edb9c3769a9c4d7b3fc32de89294.webp","show_title":"Dope Thief"},{"id":313090,"id_show":43897,"episode":2,"season":1,"title":"Episode #1.2","description":"","still_path":null,"shard":"storage5","air_date":"2025-04-18","flag_quality":0,"created_at":"2025-04-20 04:50:44","updated_at":"2025-04-20 04:51:01","imdb_rating":"7.2","poster":"https://cloudcdn.monster/images/p/w500/afd1d9ccd35078d6a527636f4d6eeaa2.webp","show_title":"The Narrow Road to the Deep North"},{"id":313140,"id_show":112,"episode":12,"season":23,"title":"Douglas Murray/Matt Welch/Sen. Tina Smith","description":"","still_path":null,"shard":"storage1","air_date":"2025-04-18","flag_quality":0,"created_at":"2025-04-20 08:52:47","updated_at":"2025-04-20 08:54:07","imdb_rating":"7.3","poster":"https://cloudcdn.monster/images/p/w500/ff73becc9c768101b330666f93611ad6.webp","show_title":"Real Time with Bill Maher"},{"id":313085,"id_show":43,"episode":18,"season":8,"title":"Exploited","description":"","still_path":null,"shard":"storage3","air_date":"2025-04-18","flag_quality":0,"created_at":"2025-04-20 04:43:40","updated_at":"2025-04-20 04:44:21","imdb_rating":"7.2","poster":"https://cloudcdn.monster/images/p/w500/e0b408a0ee264736c9985e78aee58a7f.webp","show_title":"S.W.A.T."},{"id":313081,"id_show":28894,"episode":7,"season":4,"title":"Allow Me to Re-Introduce Myself","description":"","still_path":null,"shard":"storage5","air_date":"2025-04-18","flag_quality":0,"created_at":"2025-04-20 04:41:48","updated_at":"2025-04-20 04:42:23","imdb_rating":"7.7","poster":"https://cloudcdn.monster/images/p/w500/7e82c9eb471a38c131c4499ecb192da8.webp","show_title":"Power Book III: Raising Kanan"},{"id":313124,"id_show":43905,"episode":3,"season":1,"title":"Ultimate Fails","description":"","still_path":null,"shard":"storage4","air_date":"2025-04-18","flag_quality":0,"created_at":"2025-04-20 06:45:28","updated_at":"2025-04-20 06:45:46","imdb_rating":"0","poster":"https://cloudcdn.monster/images/p/w500/c87a295c5a942c05c342fe0234dbdd73.webp","show_title":"Big Fat Quiz: Best Bits"},{"id":313120,"id_show":39761,"episode":15,"season":2,"title":"Episode #2.15","description":"","still_path":null,"shard":"storage6","air_date":"2025-04-18","flag_quality":0,"created_at":"2025-04-20 06:11:25","updated_at":"2025-04-20 06:11:55","imdb_rating":"8.5","poster":"https://cloudcdn.monster/images/p/w500/7c82984d8e6e68ed8682d260d1702d4f.webp","show_title":"The Apothecary Diaries"}],"_links":{"self":{"href":"http://lmscript.xyz/v1/episodes/index?sort=-air_date&page=1"},"first":{"href":"http://lmscript.xyz/v1/episodes/index?sort=-air_date&page=1"},"last":{"href":"http://lmscript.xyz/v1/episodes/index?sort=-air_date&page=615"},"next":{"href":"http://lmscript.xyz/v1/episodes/index?sort=-air_date&page=2"}},"_meta":{"totalCount":12289,"pageCount":615,"currentPage":1,"perPage":20}}